161573 944653 525
710354 402576 509
180796 96533 383
734202 789873 468
332772 623316 470
469253 5294 449
719980 820949 468
722219 14697 509
754697 610381 509
756882 45427 509
519011 527242 408
100353 372359 443
499988 61383 449
644830 588318 509
65196 605545 470
316360 566885 470
972655 150393 525
80977 274157 443
893376 722248 525
682245 377770 509
897150 521729 525
768617 987518 525
852324 109202 525
991099 548283 525
800315 123386 509
924711 818345 525
348398 285781 441
878433 749701 525
844477 807053 525
33811 105801 351
504728 401454 449
396117 892432 525
622916 960496 525
771578 901260 525
35288 238858 443
563466 691094 509
94938 709235 509
59310 262317 443
917110 480366 525
209262 899294 525
348011 905636 525
28800 802893 509
165642 177892 352
70352 644569 509
764926 534788 509
658619 268185 509
757405 703694 504
131514 709174 509
35872 444813 449
290481 688068 509
169602 578869 470
904893 211936 525
828458 744066 468
971413 882708 507
586557 983100 525
260077 365101 441
533506 571214 452
188781 755542 509
647380 454636 509
163789 343265 443
731281 108958 509
314754 93572 443
339179 606497 470
358318 285198 441
269554 583674 470
14517 538829 470
495364 933976 525
787062 578705 509
893952 440979 525
13566 461931 449
801313 545319 509
886432 472815 525
154193 396978 443
184289 585655 470
949757 373167 525
448294 499586 444
901058 51819 525
590938 902133 525
915697 543241 525
16682 880544 525
594296 811788 509
19413 781101 509
590359 850858 525
182588 757641 509
74891 217897 386
901467 932838 476
758536 392952 509
924666 108173 525
518958 518015 439
455168 623234 470
414079 946726 525
65673 806713 509
135916 706913 509
35121 667480 509
228878 556410 470
754395 815843 468
893725 24269 525
466800 7498 449
318382 749805 509
396345 168684 443
575489 255573 470
610174 211120 470
831753 277973 509
154589 942273 525
359421 987576 525
339805 766037 509
661831 479602 509
259003 140116 443
764687 521995 509
783405 920189 525
249845 511190 449
363539 443979 449
339902 821407 509
637363 931897 525
42457 57881 340
660567 332681 509
931965 300363 525
313615 938666 525
658476 913783 525
296038 90920 443
437387 282381 449
615104 293087 470
504081 14441 449
53522 449933 449
965175 570801 525
325381 471951 449
372909 795770 509
719020 65313 509
704876 75506 509
189396 707427 509
819307 544746 509
738487 278736 509
748630 800373 468
904106 447121 525
241710 691732 509
77319 828853 509
256639 238158 368
8946 51646 324
349645 604159 470
179433 291836 443
500288 589589 470
73546 982121 525
955497 740111 525
342318 520109 470
238874 195510 443
924594 696783 525
871373 738175 525
140410 267198 443
828043 112945 509
398732 148662 443