876049 974367 507
56231 768506 509
191318 545071 470
710190 828498 468
64198 486638 449
30936 135471 354
561794 380680 470
148653 884327 525
325281 868634 525
435417 858098 525
716124 178524 509
407636 651438 509
403479 436002 449
638396 78906 509
484766 691671 509
648060 697632 442
220847 746058 509
468008 526887 470
813015 751945 468
777871 214685 509
637127 204940 509
667762 612624 509
32029 254349 443
873244 464751 525
869934 69911 525
362432 408606 436
247236 518571 470
862576 359528 525
24421 339405 443
394068 541481 470
688555 377937 509
325989 480129 449
954751 752680 525
659190 998997 525
530372 495015 470
834135 301994 509
42122 52623 340
989176 136733 525
780274 165517 509
873138 909495 445
609019 302065 470
703142 41394 509
496282 29728 449
562172 775993 509
970249 770150 525
281352 211110 443
734823 943566 525
812320 922366 525
73283 161523 383
440795 767694 509
959527 782311 525
996243 236183 525
273022 20420 443
174303 487945 449
835149 113680 509
966152 346151 525
392879 477554 449
381126 6954 443
592486 657589 509
907777 300905 525
562814 689387 509
513293 810218 509
626520 404988 509
788845 775319 437
516221 880177 525
120156 656816 509
824397 598789 509
83328 246516 443
948677 603430 525
311572 56629 443
317474 509466 449
252520 892272 525
851679 128906 525
190941 646032 509
587897 82414 470
901709 841587 445
931310 933906 370
294307 768558 509
596175 502966 470
226911 584235 470
742882 566402 509
722036 65957 509
321658 772411 509
347886 71650 443
896323 324941 525
599891 973722 525
977647 886306 507
955366 381682 525
950094 438807 525
888601 87898 525
121456 772115 509
49574 874732 525
399658 840512 525
608653 159196 470
827610 894764 525
480428 141511 449
556938 870945 525
837511 384276 509
430356 363766 449
622376 905256 525
510670 172763 449
510326 656644 509
729781 780889 468
483263 371606 449
971326 497091 525
685362 235456 509
475373 192509 449
622766 55837 470
509731 760931 509
109262 152398 375
306696 691760 509
822476 761853 468
347787 848145 525
646044 472445 509
959562 653661 525
245482 845879 525
774306 271308 509
797945 775564 468
915781 475890 525
425944 857943 525
330407 820394 509
393264 709661 509
451914 817033 509
390440 595702 470
147001 355496 443
742275 125171 509
751005 713015 424
401886 78225 443
866894 395636 525
905480 62237 525
966827 908126 507
631411 269715 509
316456 24871 443
893809 502517 525
196294 694963 509
887995 408122 525
142948 799282 509
531072 752066 509
159819 267816 443
864996 916708 476
732902 557503 509
971512 919437 507
155636 78421 375
742029 844655 525
720231 570148 509
484047 209274 449
364092 964027 525
581469 559005 421
670766 98285 509
957190 304178 525
53093 55983 322
720812 698823 504
547112 794768 509
838596 228002 525
634 623304 470
998663 567817 525
66499 878007 525
98837 278998 443
622694 430446 470
575000 571885 372
320857 880057 525
419580 335796 449
778518 776611 437
991125 308957 525
824578 186616 509
618619 428246 470
980513 765994 525
517848 965108 525
140593 966223 525
864627 566633 525
623394 553490 447
545127 264922 470
793647 316254 509
966679 883514 507
433574 967837 525
76939 524278 470
552190 493965 470
161756 906400 525
131607 695262 509
364567 623661 470
195040 12562 383
717077 143603 509
95484 893482 525
120634 403743 443
655108 430235 509
734872 811329 468
651396 860193 525
755766 495835 509
628626 959450 525
772492 516345 509
763485 494631 509
568401 429612 470
94535 810646 509
987063 530910 525
864483 96293 525
869242 836347 525
392169 30155 443
28917 745502 509
177261 817256 509
587831 236516 470