1 10 20
100 200 125
201 210 89
900 1000 174
990 1050 156
990 2050 182
974932 991195 427
535401 639936 509
211069 752284 509
543074 882310 525
229937 305552 443
345876 433618 449
430310 489543 444
765597 824623 468
729099 856742 525
854096 983516 507
952366 998773 458
898072 976168 507
928226 959651 507
433951 671805 509
731073 913680 525
671614 938543 525
602433 642032 509
392941 582275 470
274364 765460 509
454566 770131 509
568004 637490 509
345429 889633 525
236841 701970 509
430560 966567 525
961469 977056 458
9157 573669 470
469650 661885 509
769283 910094 525
690354 918565 525
943929 953854 414
127803 893970 525
237549 512172 470
439964 692900 509
953571 966101 414
301692 495259 449
465731 762590 509
363854 615513 470
831201 984593 525
698915 743054 504
466679 469507 413
876074 948247 507
585349 649477 509
121975 983889 525
285905 344897 389
680200 987521 525
817710 855777 525
293642 750124 509
118823 553191 470
834540 919105 525
81912 841826 525
613413 714659 509
783719 877504 525
983462 986799 427
714197 753607 424
899282 938968 476
466522 789962 509
49572 743160 509
212345 584987 470
601144 705229 509
301017 943291 525
816844 981653 525
302812 540066 470
557370 664633 509
504522 987319 525
157908 931997 525
418498 882250 525
807952 935538 525
793192 865656 525
313326 824738 509
733812 904865 525
122273 550593 470
968512 997245 458
594879 685094 509
20212 180504 383
263919 438995 449
342683 990600 525
792115 906745 525
232645 888172 525
828874 869997 525
937766 975832 507
346508 480535 449
908085 924296 476
185516 403583 443
477925 482753 413
873631 886106 432
158574 837026 509
823742 831527 419
492539 931374 525
178148 564613 470
522471 579941 452
151684 643682 509
953249 994449 458
54896 766312 509
301351 327547 384
504223 512637 470
690644 822959 504
292616 361413 441
368154 451519 449
672100 900241 525
409135 549743 470
658406 687990 442
606830 944802 525
611035 861509 525
830173 911824 525
513760 830248 509
123620 895267 525
837808 927992 476
617995 633848 509
903974 949409 507
499979 632292 509
584890 878236 525
257015 416656 449
260660 846794 525
610936 995379 525
587658 675220 509
594573 972554 525
525957 591992 452
736725 792368 468
317173 587518 470
325222 620667 470
