997077 228212 525
349407 945420 525
244978 209467 443
472501 346313 449
237723 309586 407
430613 965131 525
190802 578696 470
893671 163460 525
234735 141758 443
723936 239992 509
232216 74688 443
519179 173710 470
62091 398348 443
292989 843367 525
212980 262958 443
612081 136124 470
991253 396436 525
112990 124822 349
641250 672411 442
954337 541214 525
200033 217143 386
425883 101591 449
964638 819270 525
631896 851564 525
36693 532333 470
893858 588399 525
527453 267208 470
276381 592128 470
655686 860082 525
430177 350769 449
151546 571325 470
767282 700348 504
91449 221580 386
836213 816994 450
532154 203635 470
648570 796263 504
86654 422110 449
623612 133916 470
890153 807709 525
763629 282750 509
241314 428779 449
650477 601672 509
572126 380144 470
862422 436061 525
299163 567636 470
450487 772563 509
539653 226505 470
184787 896817 525
637708 512845 509
383854 749209 509
939225 789395 525
273780 221606 443
278362 290575 389
989018 467128 525
194198 696316 509
522962 405344 470
983061 770244 525
164007 996920 525
310183 624975 470
211537 534559 470
253781 365795 441
56341 151194 375
335279 833685 509
31262 981752 525
301347 919646 525
790403 931393 525
166565 454526 449
359008 800987 509
299951 991972 525
411185 599696 470
144248 896922 525
778908 234876 509
493783 27982 449
673302 411121 509
124874 959277 525
607971 493104 470
972176 125842 525
554195 291011 470
975013 496345 525
429094 212659 449
179679 377901 443
620414 993049 525
676819 739980 504
885354 259917 525
477459 7875 449
625909 522955 452
486876 620919 470
239505 784745 509
322442 776645 509
971204 863027 507
839732 689262 525
452581 686775 509
880591 379338 525
902397 282685 525
937532 481303 525
785496 903993 525
140743 806320 509
578857 770162 509
217150 430366 449
177578 183831 365