1 10 20
100 200 125
201 210 89
900 1000 174
589265 789189 509
401436 413613 449
61417 474066 449
191847 904484 525
200863 801352 509
665701 832471 504
503843 939153 525
912437 937204 476
676754 233269 509
74436 880585 525
569613 924515 525
414528 473203 444
362367 434873 449
146244 523836 470
418943 315432 449
142045 899206 525
950625 849071 507
326287 164749 443
843597 500430 525
627181 507259 509
420453 272716 449
351869 360602 410
697449 133059 509
214356 487406 449
66303 318794 443
32649 899675 525
845575 51880 525
2993 847774 525
569569 112033 470
427683 370694 449
392787 30752 443
161634 340323 443
838650 497966 525
780501 694025 504
135940 833546 509
972680 350890 525
795300 492230 509
752680 835272 468
48465 587329 470
619878 771984 509
815414 340437 509
716199 522515 509
231767 558151 470
464735 985365 525
395645 433936 449
169964 527905 470
757432 575671 509
837916 219290 525
543699 957241 525
667233 108779 509
389132 500737 449
478544 187821 449
298036 909861 525
710672 403424 509
858492 244327 525
390954 843722 525
986887 598508 525
623160 888851 525
930862 501290 525
539528 300424 470
739951 800732 468
659805 266936 509
124574 915143 525
948122 839562 507
644891 691704 442
658485 510340 509
127486 227184 386
469562 385409 449
79487 279155 443
193339 233922 443
284646 324943 389
753151 128467 509
22416 576211 470
949973 433538 525
431523 603051 470
202742 629276 509
45826 658023 509
24882 56337 340
989859 937158 507
540906 604315 452
963948 411284 525
985514 857807 507
958955 650518 525
332733 852459 525
625500 37607 470
369582 662825 509
63026 9331 340
396971 714139 509
763750 9923 509
845624 366269 525
989762 268570 525
398559 201665 443
473177 586250 470
996075 429282 525
583579 638588 509
32787 561802 470
950303 496685 525
33850 381477 443
56092 52966 322
275510 141690 443
282774 735205 509
8763 571209 470
7942 321581 443
725786 55019 509
500253 911484 525
175471 723828 509
533800 328715 470
507375 342309 449
880267 241006 525
93901 559133 470
309008 883035 525
15690 93283 351
838039 938309 476
294372 33604 443
179051 589682 470
625264 204203 470
133209 235099 443
143908 193768 383
520445 382736 470
199993 483695 449
861149 197817 525
708906 802769 468
907389 528121 525
469851 25952 449
124237 54204 354
556069 148139 470
197215 576915 470
768385 845890 525
294395 320114 384
287039 880959 525
337101 762730 509
662330 46195 509
78460 439362 449
568344 573580 377
59393 364788 443
551898 301256 470
199000 409179 443
82673 399348 443
621996 952315 525
837238 555333 509
339696 10639 443
41556 961 324
521921 690440 509
873253 784315 525
623226 80917 470
141333 128925 344
382741 123641 443
810183 16802 509
297213 874367 525
131826 451247 449
