819361 622729 509
791601 301781 509
248744 945107 525
165396 58359 383
947225 890108 507
382917 881278 525
734136 119461 509
351868 769813 509
692612 954626 525
331674 259056 407
770407 866222 525
769145 311542 509
511619 590535 470
455350 222392 449
504747 851238 525
394797 338760 441
141218 622946 470
130715 566521 470
585737 445987 470
24870 950607 525
582190 326087 470
340146 781952 509
68670 593792 470
669632 560345 509
737703 380225 509
447886 782304 509
51008 230080 386
892482 74427 525
757746 472492 509
176692 899432 525
176215 320229 443
210639 6499 383
450532 365202 449
233820 244872 381
655968 167602 509
612696 273821 470
986459 803077 525
224103 912623 525
795835 294717 509
330609 899523 525
222947 753980 509
371224 659267 509
615698 322134 470
670142 26740 509
867569 465083 525
725846 355186 509
739926 148568 509
309702 976459 525
33667 717151 509
703953 488634 509
403775 311685 441
343872 55114 443
728255 627583 504
578635 221354 470
431359 918080 525
271512 438404 449
398943 642509 509
107033 474618 449
645591 378306 509
268032 649646 509
329140 559011 470
895730 679327 525
183125 182457 334
716826 495392 509
16691 747105 509
300322 753684 509
14329 694633 509
295648 218214 443
555278 851253 525
674652 306525 509
501958 388369 449
661979 928457 525
456854 126363 449
872987 544452 525
930891 339711 525
575179 993250 525
734615 558809 509
35833 230432 386
902070 324846 525
688231 903776 525
124460 425982 449
669114 623199 509
579937 692539 509
895401 709771 525
931470 982496 507
548375 633710 509
639460 527777 509
651457 441090 509
124480 983890 525
234518 881133 525
251269 554135 470
182872 129441 383
187302 974891 525
769729 438817 509
385279 223053 443
464740 866758 525
516960 840386 525
978011 112908 525
684611 761069 504
913996 706957 525
902157 216358 525
420345 470960 444
44977 884960 525
726248 903385 525
401602 440247 449
422997 261409 449
548753 251026 470
653617 888470 525
891343 895687 370
427486 287900 449
298682 220814 443
683742 681641 336
591309 254888 470
327437 642348 509
108301 818733 509
814597 956027 525
363595 199803 443
30196 997573 525
83591 524008 470
353753 982661 525
934081 843024 476
310604 305027 371
582969 744127 509
82029 451631 449
59162 935376 525
279435 218973 443
458004 847962 525
27751 915376 525
82156 289766 443
983973 535413 525
730861 261404 509
351821 376395 410
843675 195662 525
43781 186151 383
80958 215798 383
363693 17610 443
690469 441332 509
18972 895633 525
410892 322941 449
757677 681124 504
492190 654867 509
7751 681278 509
686174 376969 509
605851 15772 470
380403 898052 525
426450 552239 470
687344 889128 525
868729 174916 525
693076 562830 509
658211 80188 509
20179 858435 525
191492 467070 449
323067 825769 509
434698 92809 449
188011 232189 443
365640 794834 509
56571 887702 525
62542 597790 470
583717 272232 470
43446 909932 525
765192 916359 525
392345 990359 525
12222 655405 509
419253 156827 449
953476 349237 525
273033 131476 443
116588 71965 354
100704 495370 449
497417 50498 449
112858 409675 443
549319 797374 509
266096 436145 449
474686 87102 449
973164 856015 507
465977 472947 413
258058 2402 443
343059 683991 509
377502 975221 525
381218 756591 509
155952 221758 386
867566 338600 525
528181 971805 525
606630 559651 434
103684 152126 375
176340 355115 443
828424 582996 509
284050 535715 470
6813 297695 443
949937 632926 525
331106 248765 407
500869 163971 449
870661 958129 507
863482 359327 525
133146 224007 386
422389 596792 470
566636 558253 421
162097 612169 470
412830 82101 449
610058 722058 509
400363 358053 436
