1 10 20
100 200 125
201 210 89
900 1000 174
605043 790030 509
95631 637435 509
205963 973555 525
168703 232877 443
577300 615047 447
29868 304271 443
960301 993419 458
86357 136366 354
46195 780451 509
695385 767912 504
248865 607952 470
103398 742868 509
315868 376051 441
237478 730451 509
510450 739722 509
30846 631844 509
126476 529751 470
252065 269279 407
437981 616382 470
231428 484941 449
305564 531632 470
491933 777648 509
815334 914013 525
578289 861528 525
694463 862552 525
302415 556912 470
111416 176661 383
3818 561634 470
8880 315464 443
250620 519329 470
55185 281465 443
101288 667525 509
924292 936803 476
353352 540673 470
354645 891135 525
288453 422767 449
66100 176560 383
914699 991893 507
9339 496464 449
707279 853420 525
871890 926683 476
9693 499657 449
87678 103343 341
19826 112222 354
270446 919493 525
147902 491030 449
68262 815426 509
592317 992554 525
462020 752228 509
49578 159715 383
333016 854382 525
509575 582481 470
13531 920481 525
501467 933297 525
22869 871238 525
640575 894758 525
166619 797920 509
901262 910766 476
254296 930591 525
529835 690141 509
201036 677737 509
181170 785650 509
9514 289838 443
278094 778203 509
344132 751857 509
437808 601225 470
20288 198514 383
627151 635346 385
550170 644970 509
84994 573038 470
516207 725568 509
830479 984147 525
892186 894912 370
248092 662834 509
341854 777927 509
59242 352974 443
50495 972015 525
844891 981528 507
139445 340332 443
259621 608540 470
213780 483576 449
198441 209764 373
750419 836915 468
300588 350139 441
435132 998236 525
514442 873625 525
374123 677052 509
344920 569237 470
109364 785386 509
127240 748422 509
101395 887290 525
186481 859304 525
151889 547723 470
357183 492220 449
133156 687167 509
617112 687094 509
826875 863287 525
401887 613706 470
180141 752025 509
178376 430645 449
703508 820622 504
209170 380559 443
194744 554089 470
466148 980130 525
179804 214569 373
67093 623721 470
315964 810201 509
442748 984204 525
316283 357923 441
561441 992776 525
449438 609887 470
248534 829076 509
650420 953113 525
133254 442781 449
873426 918796 476
622304 827981 509
