946604 607387 525
234217 581285 470
342832 108565 443
741597 424516 509
649096 577508 509
391083 767828 509
46213 324330 443
62523 624662 470
881977 652174 525
900255 765650 525
63912 384213 443
844331 970294 507
28029 160831 383
295546 218879 443
154195 840076 525
309321 798982 509
15268 122126 354
209762 197172 373
337582 991308 525
846167 718482 525
37203 263276 443
342656 384703 441
745547 613554 509
753024 93974 509
216541 252960 443
476997 373327 449
251765 533826 470
946595 828131 525
696621 473382 509
369753 223586 443
963466 91878 525
200848 418153 449
398813 352233 436
101609 995785 525
936011 965734 507
441690 430308 400
29318 214651 383
907528 461709 525
635763 377299 509
925281 284571 525
72330 549894 470
733450 114659 509
264664 340765 407
825136 688414 504
443445 555824 470
356175 87128 443
313357 42137 443
503375 980231 525
120021 949092 525
728825 556337 509
613462 751083 509
459868 434685 400
408144 755243 509
926531 268043 525
800015 548996 509
421302 185670 449
661470 766454 504
420793 112091 449
611632 548139 434
604569 843786 525
770756 12981 509
107455 180355 383
891731 121623 525
527806 31469 470
62716 960317 525
855036 314121 525
486813 555570 470
750112 200524 509
81241 510236 449
207308 740387 509
658910 209044 509
124384 405284 443
918076 514843 525
308112 198633 443
898500 62334 525
161908 887295 525
913124 936759 476
123076 675497 509
653532 515108 509
444156 639866 509
82696 194172 383
935423 230057 525
617752 538179 452
281494 478062 449
928523 712949 525
104011 740655 509
390785 363874 436
661680 408888 509
759423 402313 509
44608 97259 351
744193 405244 509
267808 918344 525
135848 552769 470
111122 720075 509
980471 965483 458
294059 817488 509
790801 410357 509
228480 50260 386
376858 848887 525
207009 407987 443
1 1000000 525
1000000 1 525
1 1000000 525
1000000 1 525
1 1000000 525
1000000 1 525
1 1000000 525
1000000 1 525
1 1000000 525
1000000 1 525
1 1000000 525
1000000 1 525
1 1000000 525
1000000 1 525
1 1000000 525
1000000 1 525
1 1000000 525
1000000 1 525
1 1000000 525
1000000 1 525
1 1000000 525
1000000 1 525
1 1000000 525
1000000 1 525
1 1000000 525
1000000 1 525
1 1000000 525
1000000 1 525
1 1000000 525
1000000 1 525
1 1000000 525
1000000 1 525
1 1000000 525
1000000 1 525
1 1000000 525
1000000 1 525
1 1000000 525
1000000 1 525
1 1000000 525
1000000 1 525
1 1000000 525
1000000 1 525
1 1000000 525
1000000 1 525
1 1000000 525
1000000 1 525
1 1000000 525
1000000 1 525
1 1000000 525
1000000 1 525
1 1000000 525
1000000 1 525
1 1000000 525
1000000 1 525
1 1000000 525
1000000 1 525
1 1000000 525
1000000 1 525
1 1000000 525
1000000 1 525
1 1000000 525
1000000 1 525
1 1000000 525
1000000 1 525
1 1000000 525
1000000 1 525
1 1000000 525
1000000 1 525
1 1000000 525
1000000 1 525
1 1000000 525
1000000 1 525
1 1000000 525
1000000 1 525
1 1000000 525
1000000 1 525
1 1000000 525
1000000 1 525
1 1000000 525
1000000 1 525
1 1000000 525
1000000 1 525
1 1000000 525
1000000 1 525
1 1000000 525
1000000 1 525
1 1000000 525
1000000 1 525
1 1000000 525
1000000 1 525
1 1000000 525
1000000 1 525
1 1000000 525
1000000 1 525
1 1000000 525
1000000 1 525
1 1000000 525
1000000 1 525
1 1000000 525
1000000 1 525
