336728 627887 509
649668 412346 509
33533 457005 449
320535 41484 443
559422 614882 434
455329 229777 449
350037 983174 525
501478 249912 449
63464 113704 354
106280 540322 470
686955 457633 509
829075 556111 509
756007 46725 509
813553 702835 504
788239 160805 509
612008 753813 509
592506 309670 470
919711 39382 525
589504 967852 525
288073 326975 389
345822 157548 443
249715 301200 407
863771 968516 507
923150 510551 525
997497 565216 525
601249 146893 470
540583 286098 470
287442 807481 509
128576 643350 509
155038 999507 525
692851 897041 525
216622 971149 525
425329 416347 418
440933 466094 444
112641 698846 509
367984 639995 509
401818 831512 509
440077 390678 449
232450 419655 449
664530 306587 509
169454 842813 525
940333 674345 525
925761 401724 525
696614 218899 509
388792 96393 443
626220 142171 470
615489 91041 470
736060 292973 509
917047 693996 525
416770 540153 470
950215 47789 525
408417 461507 449
977179 864386 507
703970 963979 525
720144 490218 509
383516 55865 443
82721 618527 470
808873 71732 509
636870 515524 509
16026 627755 509
40630 256382 443
604444 969030 525
280792 715303 509
73594 468286 449
778007 1434 509
905800 386728 525
452817 847788 525
257166 750618 509
978214 72370 525
507656 283402 449
231447 845630 525
87134 525352 470
162414 217297 386
714169 482872 509
496727 665661 509
98723 969166 525
4615 4853 197
224673 303743 443
140697 991492 525
621813 943365 525
392321 736761 509
805433 140304 509
110903 296708 443
964354 935143 507
845948 549188 525
156466 754239 509
337429 905663 525
65081 110870 354
182231 938440 525
893137 32085 525
585347 537161 452
377384 634632 509
821229 563850 509
356033 552787 470
719477 563704 509
930207 568070 525
833144 581257 509
593199 705177 509
254134 202905 443
94281 180219 383
838672 645404 525
108901 739213 509
720053 235817 509
386863 132625 443
879543 394155 525
123260 309277 443
587729 869336 525
942860 446218 525
346390 331049 441
542978 328790 470
327683 61477 443
965728 822947 525
291870 120585 443
769103 480488 509
667279 856928 525
580658 129285 470
558094 638380 509
48943 360822 443
750317 873261 525
414519 286730 449
523942 521763 333
151213 387107 443
264751 110169 443
525317 596520 452
739566 995461 525
117200 86948 354
437972 638280 509
623138 417628 470
898926 242800 525
141318 177969 383
641997 298761 509
893750 490395 525
603174 327786 470
85070 663647 509
121015 125554 336
646021 465765 509
743276 559650 509
468726 728645 509
316681 274097 389
985985 111838 525
62508 783820 509
94528 763982 509
727709 699453 504
714141 743717 424
998659 286567 525
873383 819033 525
927200 556342 525
602301 526123 452
24544 392738 443
354786 592515 470
726301 37004 509
921863 220908 525
376961 853297 525
88441 130084 354
652086 244211 509
26293 910795 525
583158 215971 470
277367 346212 441
454219 426765 400
734326 845906 525
87989 203109 383
910070 565225 525
523028 109512 470
934121 120327 525
812969 216722 509
294960 704034 509
863437 657694 525
652581 13459 509
265079 476056 449
146225 877364 525
256488 522820 470
735890 937844 525
867408 508590 525
167677 399147 443
53574 769717 509
477781 397318 449
814938 124746 509
999914 481095 525
174731 982623 525
495724 47819 449
607331 551069 434
115653 791195 509
619173 341699 470
219046 556426 470
361909 108032 443
315158 490525 449
389868 75545 443
660996 722305 504
284264 19497 443
53021 708842 509
428459 730633 509
128927 576079 470
649144 385852 509
192402 825996 509
225864 406355 443
785602 456999 509
507318 825298 509
674807 177729 509
93450 582027 470
308797 675790 509
